<svg width="14" height="14" viewBox="0 0 14 14" fill="none" xmlns="http://www.w3.org/2000/svg">
<path fill-rule="evenodd" clip-rule="evenodd" d="M3.03651 3.03692C0.853177 5.22025 0.853177 8.77318 3.03651 10.9565C5.21984 13.1398 8.77277 13.1398 10.9561 10.9565C13.1394 8.77318 13.1394 5.22025 10.9561 3.03692C8.77277 0.853584 5.21984 0.853584 3.03651 3.03692ZM11.9465 11.9465C9.21717 14.6758 4.77626 14.6758 2.04697 11.9465C-0.682323 9.21717 -0.682323 4.77626 2.04697 2.04697C4.77626 -0.682323 9.21717 -0.682323 11.9465 2.04697C14.6758 4.77626 14.6758 9.21717 11.9465 11.9465Z" fill="#26AFFF"/>
<path d="M3.03779 6.29657V7.69635L10.9574 7.69635V6.29657L3.03779 6.29657Z" fill="#26AFFF"/>
</svg>
