<svg width="14" height="14" viewBox="0 0 14 14" fill="none" xmlns="http://www.w3.org/2000/svg">
<path fill-rule="evenodd" clip-rule="evenodd" d="M3.03794 3.03834C0.853578 5.2227 0.853578 8.7773 3.03794 10.9617C5.22229 13.146 8.77689 13.146 10.9612 10.9617C13.1456 8.7773 13.1456 5.2227 10.9612 3.03834C8.77689 0.853985 5.22229 0.853985 3.03794 3.03834ZM11.9521 11.9521C9.2215 14.6826 4.7785 14.6826 2.04793 11.9521C-0.682643 9.2215 -0.682643 4.7785 2.04793 2.04793C4.7785 -0.682643 9.2215 -0.682643 11.9521 2.04793C14.6826 4.7785 14.6826 9.2215 11.9521 11.9521Z" fill="#26AFFF"/>
<path fill-rule="evenodd" clip-rule="evenodd" d="M7.70109 3.03809L6.30064 3.03809V6.29952L3.03921 6.29952V7.69997H6.30064V10.9614H7.70109L7.70159 7.70046L10.9625 7.69997V6.29952L7.70109 6.29952V3.03809Z" fill="#26AFFF"/>
</svg>
