<svg width="16" height="16" viewBox="0 0 16 16" fill="none" xmlns="http://www.w3.org/2000/svg">
<path d="M6.34766 11.802C6.8457 12.0073 7.44336 12.11 8.14062 12.11C8.78516 12.11 9.35742 12.0147 9.85547 11.824C10.3633 11.626 10.7539 11.3473 11.0332 10.988C11.3203 10.6213 11.4629 10.1923 11.4629 9.701C11.4629 9.25367 11.3672 8.88334 11.1758 8.59C10.9863 8.28934 10.6855 8.04733 10.2734 7.86401C9.87109 7.67334 9.32812 7.51567 8.64648 7.39101C8.22852 7.303 7.90625 7.21867 7.67773 7.138C7.45898 7.05 7.29688 6.95467 7.19531 6.85201C7.09961 6.74934 7.05078 6.621 7.05078 6.467C7.05078 6.23967 7.13867 6.06734 7.31445 5.95C7.40625 5.88928 7.51758 5.84427 7.65039 5.81497C7.77344 5.78766 7.91406 5.774 8.07422 5.774C8.36133 5.774 8.59961 5.83267 8.78906 5.95C8.98828 6.06734 9.10742 6.21033 9.15234 6.37901C9.19727 6.445 9.24414 6.49267 9.29492 6.522C9.35352 6.55134 9.42773 6.566 9.51562 6.566H10.9668C11.0078 6.566 11.0449 6.55734 11.0781 6.54002C11.0977 6.52973 11.1152 6.5164 11.1328 6.5C11.1758 6.456 11.1992 6.401 11.1992 6.335C11.1895 6.12651 11.1309 5.9165 11.0234 5.70495C10.9648 5.5891 10.8906 5.47278 10.8027 5.356C10.5605 5.01867 10.2051 4.74001 9.73633 4.52C9.26562 4.3 8.71289 4.19 8.07422 4.19C7.45898 4.19 6.91992 4.289 6.45703 4.487C5.99609 4.68501 5.64062 4.96 5.39062 5.312C5.14062 5.664 5.01562 6.06367 5.01562 6.511C5.01562 7.17101 5.23242 7.68067 5.66602 8.04C6.10547 8.39201 6.76562 8.65967 7.64453 8.843C8.12109 8.94567 8.48047 9.03734 8.72266 9.118C8.8418 9.15784 8.94531 9.20035 9.0332 9.24554C9.12305 9.29188 9.19531 9.34103 9.25195 9.39301C9.36914 9.49567 9.42773 9.62767 9.42773 9.789C9.42773 10.0163 9.31641 10.196 9.09766 10.328C8.87695 10.46 8.55859 10.526 8.14062 10.526C7.78906 10.526 7.50586 10.4637 7.29297 10.339C7.08008 10.2143 6.92578 10.0567 6.83203 9.866C6.77344 9.8 6.71484 9.75233 6.65625 9.723C6.60352 9.68633 6.53516 9.668 6.44727 9.668H5.06055C4.99414 9.668 4.93555 9.69367 4.88477 9.745C4.83984 9.789 4.81836 9.84034 4.81836 9.899C4.83398 10.295 4.96484 10.6617 5.21484 10.999C5.4707 11.329 5.84961 11.5967 6.34766 11.802Z" fill="#F55045"/>
<path fill-rule="evenodd" clip-rule="evenodd" d="M0 8C0 3.58173 3.58203 0 8 0C12.418 0 16 3.58173 16 8C16 12.4183 12.418 16 8 16C3.58203 16 0 12.4183 0 8ZM1.5 8C1.5 4.68629 4.68555 1.5 8 1.5C11.3145 1.5 14.5 4.68629 14.5 8C14.5 11.3137 11.3145 14.5 8 14.5C4.68555 14.5 1.5 11.3137 1.5 8Z" fill="#F55045"/>
</svg>
