<svg width="19" height="11" viewBox="0 0 19 11" fill="none" xmlns="http://www.w3.org/2000/svg">
<path fill-rule="evenodd" clip-rule="evenodd" d="M12.2511 0V1.87922H15.7085L10.3229 7.12787L6.46638 3.36944L0 9.67139L1.36327 11L6.46638 6.02665L10.3229 9.78509L17.0718 3.20782V6.57726H19V0H12.2511Z" fill="#31D431"/>
</svg>
