<svg width="17" height="17" viewBox="0 0 17 17" fill="none" xmlns="http://www.w3.org/2000/svg">
<path fill-rule="evenodd" clip-rule="evenodd" d="M15.2989 4.28317C15.2989 4.54242 15.1824 4.78552 14.9801 4.94702L13.5938 6.05627C13.5946 6.02057 13.5989 5.98572 13.5989 5.95002V2.55002H15.2989V4.28317ZM8.49375 9.34998C6.61865 9.34998 5.09375 7.82508 5.09375 5.94998V1.69998H11.8937V5.94998C11.8937 7.82508 10.3688 9.34998 8.49375 9.34998ZM2.02077 4.94787C1.81762 4.78552 1.70117 4.54242 1.70117 4.28317V2.55002H3.40117V5.95002C3.40117 5.98572 3.40542 6.02057 3.40627 6.05627L2.02077 4.94787ZM10.1988 15.3H6.79883V14.45H10.1988V15.3ZM16.15 0.85H13.3637C13.0688 0.34425 12.5264 0 11.9 0H5.1C4.47355 0 3.93125 0.34425 3.6363 0.85H0.85C0.3808 0.85 0 1.2308 0 1.7V4.28315C0 5.06175 0.3485 5.78765 0.9571 6.2747L4.5084 9.1154C5.27595 10.081 6.3835 10.7601 7.65 10.9735V12.75H5.95C5.4808 12.75 5.1 13.1308 5.1 13.6V15.3H4.25V17H12.75V15.3H11.9V13.6C11.9 13.1308 11.5192 12.75 11.05 12.75H9.35V10.9735C10.6165 10.7601 11.7241 10.081 12.4916 9.1154L16.0438 6.2747C16.6515 5.78765 17 5.06175 17 4.28315V1.7C17 1.2308 16.6192 0.85 16.15 0.85Z" fill="#31D431"/>
</svg>
