<svg width="22" height="24" viewBox="0 0 22 24" fill="none" xmlns="http://www.w3.org/2000/svg">
<path fill-rule="evenodd" clip-rule="evenodd" d="M15.4393 4.707L10.7323 0L6.02527 4.707L7.43927 6.121L9.73227 3.828V12.414H11.7323V3.828L14.0253 6.121L15.4393 4.707Z" fill="black"/>
<path fill-rule="evenodd" clip-rule="evenodd" d="M2.12 22L3.453 18H18.012L19.345 22H2.12ZM21.3649 21.735L19.7319 16.837V8C19.7319 7.448 19.2849 7 18.7319 7H15.7319V9H17.7319V16H3.73195V9H5.73195V7H2.73195C2.17995 7 1.73195 7.448 1.73195 8V16.837L0.0999475 21.734C-0.0860525 22.292 -0.0100525 22.864 0.307948 23.306C0.624948 23.747 1.14395 24 1.73195 24H19.7319C20.3199 24 20.8389 23.747 21.1569 23.306C21.4749 22.864 21.5509 22.292 21.3649 21.735Z" fill="black"/>
<path fill-rule="evenodd" clip-rule="evenodd" d="M12.7323 21H8.7323V19H12.7323V21Z" fill="black"/>
</svg>
