<svg width="18" height="16" viewBox="0 0 18 16" fill="none" xmlns="http://www.w3.org/2000/svg">
<path fill-rule="evenodd" clip-rule="evenodd" d="M5.89827 16L0 9.87659L1.6 8L5.67784 12.221L15.6 0L17.6 1.14802L5.89827 16Z" fill="#31D431"/>
</svg>
