<svg width="100" height="43" viewBox="0 0 100 43" fill="none" xmlns="http://www.w3.org/2000/svg">
<path fill-rule="evenodd" clip-rule="evenodd" d="M82.5963 26.0718C82.7249 26.3879 82.8826 26.6806 83.0693 26.9498C83.6684 27.8135 84.4415 28.2186 85.3887 28.1652C86.2307 28.1182 87.0305 27.6669 87.7883 26.8112C88.546 25.9556 89.1354 24.7296 89.5564 23.1334C89.3669 24.6599 89.1985 25.8284 89.0512 26.6386L88.9564 27.3995L88.7869 27.5475C87.0169 29.0924 85.248 30.6363 83.73 32.4337C82.4978 33.8922 81.6559 35.1683 81.2041 36.2622C80.7711 37.2644 80.5408 38.3426 80.5265 39.4344C80.5265 40.5412 80.8633 41.4171 81.5369 42.0621C82.2104 42.7071 83.0839 43.0045 84.1574 42.9542C86.1586 42.8618 87.8344 41.503 89.0997 38.8777C90.7099 35.533 91.6329 31.7579 92.24 28.0752C94.2558 26.6086 96.2797 25.1583 98.3117 23.7241C98.6024 23.5307 98.841 23.2685 99.0063 22.9608C99.1712 22.5854 99.2468 22.1769 99.2273 21.7673C99.2389 21.4036 99.1551 21.0433 98.9845 20.722C98.9246 20.6009 98.8323 20.4987 98.7177 20.427C98.6032 20.3554 98.4711 20.3169 98.336 20.3161C98.0725 20.335 97.8197 20.4286 97.6074 20.5859C96.0692 21.6571 94.4906 22.853 92.8715 24.1738L93.6924 18.8382C94.2396 15.5873 94.5133 13.6865 94.5133 13.1355C94.5263 13.0131 94.5082 12.8894 94.4607 12.7759C94.4131 12.6625 94.3376 12.5629 94.2412 12.4864C93.9271 12.3362 93.5763 12.2797 93.2309 12.3236C92.5363 12.343 92.0142 12.5083 91.6669 12.8097C91.267 13.2058 90.9975 13.7147 90.8946 14.2682C90.4761 15.9678 89.9537 17.6402 89.3305 19.2757C88.939 20.3499 88.4308 21.3778 87.815 22.3409C87.3406 23.0216 86.9455 23.3708 86.6298 23.3886C86.1878 23.4081 85.9668 23.0029 85.9668 22.1732C85.9805 21.4937 86.0438 20.8162 86.1562 20.1459C86.2825 19.3195 86.4282 18.4517 86.5982 17.5474C86.7129 16.9332 86.8795 16.244 87.0597 15.4992L87.06 15.4979L87.1034 15.3183C87.264 14.73 87.3801 14.1303 87.4507 13.5244C87.4612 13.3993 87.4422 13.2734 87.3954 13.1569C87.3486 13.0404 87.2752 12.9365 87.1811 12.8535C86.9941 12.7125 86.6735 12.6566 86.2096 12.6882C85.3814 12.7441 84.7889 12.9313 84.41 13.2424C83.9793 13.6376 83.6722 14.1493 83.5259 14.7155C83.07 16.1566 82.7218 17.6297 82.484 19.1226C82.328 20.1875 82.2296 21.2597 82.1891 22.3347C81.6707 22.9388 81.1198 23.5146 80.5386 24.0595C79.8765 24.6639 79.0324 25.0308 78.1391 25.1024C77.0236 25.198 76.2075 24.8171 75.691 23.9599C75.1745 23.1026 74.9163 21.5501 74.9163 19.3024C74.9163 18.698 74.9373 17.8537 74.9794 16.7695C76.5192 16.6091 77.2915 16.5337 78.8313 16.3928C81.209 16.174 82.399 15.3354 82.399 13.8331C82.399 13.4199 82.3262 13.1403 82.178 13.0018C82.0752 12.9241 81.9572 12.869 81.8316 12.8401C81.706 12.8112 81.5758 12.8091 81.4494 12.8341C80.0359 12.9556 79.3267 13.0212 77.9133 13.1598C80.2351 10.413 82.0177 7.72206 82.0177 3.97375C82.0177 2.7551 81.7651 1.7682 81.26 1.01302C81.0489 0.660659 80.7385 0.378554 80.3678 0.202115C79.997 0.0256718 79.5825 -0.0372497 79.1762 0.0212506C77.9764 0.147654 76.8592 0.859879 75.8124 2.14821C74.7657 3.43654 73.8841 5.11866 73.1409 7.15568C72.3625 9.32112 71.8138 11.5625 71.504 13.8428L69.7043 14.0543C68.7572 14.1694 68.2835 14.8273 68.2835 16.0281C68.2787 16.5451 68.3864 16.9081 68.6066 17.1171C68.8268 17.3262 69.2526 17.3943 69.8841 17.3213L71.1154 17.1803C71.0522 18.1551 71.0207 19.125 71.0207 20.0633C71.0142 20.6957 71.0435 21.3534 71.1165 22.0112C71.0573 22.0372 70.9999 22.0678 70.9451 22.1028C70.7984 22.1965 70.6727 22.3199 70.5762 22.4649C69.869 23.4375 69.1101 24.3715 68.303 25.2628C67.7347 25.8672 67.2611 26.1914 66.8822 26.2351C66.7142 26.2701 66.5393 26.2483 66.385 26.173C66.2307 26.0978 66.1058 25.9734 66.0297 25.8194C65.8374 25.3586 65.7542 24.8594 65.7869 24.361C65.7869 23.5272 66.0589 21.8937 66.5446 19.4847C66.9502 17.4988 67.1445 16.2202 67.1445 15.683C67.1445 14.9561 66.6078 14.6572 65.5343 14.7933C64.8397 14.884 64.3345 15.0777 64.0188 15.3742C63.7031 15.6708 63.4505 16.1732 63.2611 16.8813C62.867 18.3051 62.5564 19.7506 62.3309 21.2106C62.145 22.2802 62.0288 23.3605 61.9829 24.4448C61.461 25.0819 60.9017 25.6879 60.3078 26.2594C59.6752 26.8311 58.8809 27.1921 58.0345 27.2925C57.7985 27.3367 57.5554 27.3246 57.325 27.257C57.0945 27.1894 56.8833 27.0683 56.7085 26.9036C56.3701 26.5762 56.1272 25.9872 55.9799 25.1364C58.1658 21.7505 60.0566 18.1827 61.6314 14.4724C62.8093 11.6284 63.6958 8.46832 63.7152 5.35202C63.7273 3.57996 63.4262 2.2576 62.8482 1.39223C62.6097 0.989101 62.2525 0.669676 61.8255 0.477751C61.3985 0.28583 60.9227 0.230812 60.4632 0.320239C58.6854 0.590059 57.1359 2.01938 55.8487 4.58631C54.47 7.41966 53.4822 10.4273 52.9124 13.5268C52.2986 16.4703 51.966 19.4656 51.9191 22.4722C51.9164 23.4739 51.9783 24.399 52.1037 25.2472C51.3223 26.1971 50.4081 27.031 49.3884 27.7228C48.1773 28.5428 47.0982 29.0135 46.151 29.1351C44.6776 29.323 43.6778 28.9698 43.1516 28.0752C45.6337 27.1483 47.3961 26.0949 48.4388 24.9152C49.4374 23.8411 49.995 22.4298 50.0005 20.9627C50.0005 19.7181 49.6321 18.7847 48.8954 18.1624C48.1587 17.5401 47.18 17.3148 45.9591 17.4866C44.6074 17.6714 43.3335 18.2285 42.2797 19.0958C41.1892 19.9847 40.3197 21.1147 39.7393 22.3969C39.1346 23.6903 38.822 25.1012 38.8237 26.5292C38.8244 26.9927 38.8561 27.4304 38.9188 27.8424C38.5537 28.2751 38.1762 28.6972 37.7866 29.1083C37.2086 29.6885 36.7091 30.0037 36.2882 30.0539C36.1661 30.0749 36.0406 30.0635 35.9243 30.0208C35.8079 29.9782 35.7048 29.9058 35.6251 29.8108C35.4417 29.5523 35.3556 29.2371 35.3823 28.9212C35.3823 28.2989 35.6737 26.6192 36.2663 23.8918C36.7861 21.4999 37.0556 20.0365 37.0556 19.5163C37.0737 19.399 37.0564 19.2788 37.0057 19.1714C36.9551 19.064 36.8735 18.9742 36.7715 18.9135C36.4434 18.8152 36.0958 18.8018 35.7612 18.8746C35.1929 18.8806 34.6455 19.0893 34.2172 19.4631C33.789 19.837 33.508 20.3514 33.4247 20.9141C33.0015 22.5599 32.4767 24.1779 31.8534 25.7587C31.4626 26.8032 30.9602 27.8024 30.3549 28.7388C29.8886 29.4097 29.4936 29.7622 29.1697 29.7962C29.0743 29.8162 28.975 29.8069 28.885 29.7696C28.7948 29.7323 28.7181 29.6688 28.6646 29.5872C28.5358 29.3076 28.4814 28.9995 28.5067 28.6927C28.5067 27.9731 28.7172 26.5065 29.1382 24.2929C29.2596 23.683 29.4326 22.9967 29.6206 22.2513L29.6433 22.1611C29.8027 21.6037 29.9188 21.0348 29.9906 20.4595C30.0017 20.3424 29.983 20.2244 29.9363 20.1164C29.8896 20.0085 29.8164 19.9141 29.7234 19.8421C29.5364 19.7181 29.2159 19.6841 28.752 19.7376C27.9311 19.8332 27.3312 20.0357 26.9523 20.3453C26.5279 20.726 26.2212 21.2202 26.0683 21.7697C25.6141 23.1386 25.2659 24.5405 25.0264 25.9629C24.8079 27.3742 24.7023 28.8008 24.7107 30.2289C24.7107 31.5027 25.0102 32.5374 25.6093 33.3331C25.8641 33.7047 26.2163 33.9988 26.6271 34.1832C27.038 34.3676 27.4917 34.4351 27.9384 34.3783C28.7593 34.2973 29.5275 33.8419 30.2432 33.0122C30.9588 32.1825 31.4956 31.0441 31.8534 29.5969C31.8518 30.989 32.0882 32.0423 32.5625 32.757C33.037 33.4716 33.7793 33.7714 34.7897 33.6564C36.0902 33.5158 37.3228 33.0036 38.3404 32.1809C38.9517 31.6828 39.5257 31.1419 40.0584 30.5626C40.239 30.7838 40.4395 30.9886 40.6598 31.1769C41.8806 32.2206 43.596 32.6038 45.8061 32.3267C47.4491 32.1164 49.0157 31.5072 50.3696 30.5522C51.3309 29.9179 52.2081 29.1666 52.9816 28.3166C53.069 28.5029 53.1617 28.6825 53.2598 28.8555C54.16 30.4323 55.5362 31.1073 57.3885 30.8804C58.7116 30.7234 59.963 30.1941 60.9975 29.3538C61.522 28.929 62.019 28.4724 62.4858 27.9869C62.603 28.2619 62.74 28.5142 62.8968 28.7437C63.5185 29.6528 64.5458 30.0563 65.8913 29.8765C68.3321 29.5459 70.3358 27.3047 71.7201 25.3479C71.7704 25.277 71.8176 25.2044 71.8618 25.1302C72.7631 27.3695 74.4828 29.023 77.4615 28.7291C78.7996 28.6197 80.0798 28.1353 81.1555 27.3314C81.6623 26.9417 82.1435 26.521 82.5963 26.0718ZM77.2697 4.56444C76.7922 5.69217 76.4222 6.86254 76.1646 8.05994C75.7928 9.66961 75.5026 11.2971 75.2951 12.9361C76.4744 11.7926 77.4226 10.4325 78.0881 8.93017C78.7082 7.49113 79.0183 6.20766 79.0183 5.07977C79.0183 3.79954 78.7868 3.18373 78.3237 3.23235C78.0047 3.26638 77.6534 3.71041 77.2697 4.56444ZM58.1463 6.47019C57.445 8.69182 56.9068 10.9618 56.536 13.2619C56.0843 15.775 55.831 18.3198 55.7783 20.8727C57.1372 18.3003 58.329 15.6427 59.346 12.9167C60.1837 10.6641 60.6322 8.28519 60.6721 5.88193C60.6721 4.27031 60.3782 3.49731 59.788 3.58482C59.2974 3.65531 58.7559 4.62763 58.1463 6.47019ZM42.644 25.625C42.6189 24.4507 42.8957 23.2898 43.4479 22.2534V22.2607C43.9855 21.2884 44.6436 20.748 45.4224 20.6394C45.5811 20.6062 45.7454 20.611 45.902 20.6532C46.0585 20.6954 46.2029 20.774 46.3234 20.8825C46.4387 21.0042 46.5275 21.1484 46.5844 21.3061C46.6412 21.4638 46.6648 21.6316 46.6537 21.7989C46.6537 22.5751 46.2959 23.3044 45.5803 23.9866C44.728 24.7487 43.7287 25.3278 42.644 25.6882V25.625ZM88.2327 31.3714C87.5753 34.35 86.9228 36.4874 86.2752 37.7839C85.6146 39.0787 85.0244 39.7391 84.5047 39.765C84.3723 39.7831 84.2375 39.7618 84.117 39.7039C83.9966 39.646 83.8958 39.554 83.8271 39.4393C83.6789 39.1617 83.6077 38.8495 83.6207 38.535C83.6207 37.6648 83.9825 36.6268 84.7111 35.4211C85.4397 34.2155 86.6128 32.8615 88.2327 31.3714Z" fill="#F55045"/>
<path d="M63.4918 10.5758C63.4918 11.3229 63.7128 11.8755 64.1548 12.2336C64.5903 12.5902 65.2526 12.7125 66.1414 12.6007C66.9689 12.5248 67.743 12.159 68.3272 11.5676C68.5993 11.2816 68.8119 10.9444 68.9529 10.5755C69.0938 10.2067 69.1601 9.81348 69.1482 9.41876C69.1465 8.70896 68.9037 8.19201 68.4196 7.86791C67.9354 7.5438 67.304 7.4336 66.5252 7.53731C65.7065 7.63077 64.9437 7.99924 64.3612 8.58256C64.0882 8.83797 63.8703 9.14654 63.7208 9.48931C63.5713 9.83208 63.4933 10.2018 63.4918 10.5758Z" fill="#F55045"/>
<path d="M7.059 37.173C6.21619 37.1886 5.61198 37.0606 5.25823 36.7852C4.90442 36.5097 4.69494 36.0049 4.65154 35.2875C4.53541 32.806 4.5661 30.3198 4.74355 27.842C4.91064 24.9554 5.24188 22.05 5.63001 19.1495C5.6594 18.9088 5.74055 18.6772 5.86787 18.4709C5.99512 18.2645 6.16559 18.0881 6.36748 17.954C6.87875 17.6419 7.44797 17.4367 8.04068 17.3509C9.30655 17.1215 9.98185 17.3457 10.0688 18.0207C10.1007 18.3515 10.0792 18.6853 10.0051 19.0093C9.59957 21.2357 9.33635 23.4857 9.21692 25.7455C9.03082 28.3698 8.97651 31.0018 9.05428 33.6315C9.6858 33.5917 10.4012 33.4994 11.1858 33.3737C14.2449 32.8836 17.2645 31.3644 18.9029 28.6458C20.5413 25.9272 20.8932 22.5927 20.476 19.4849C20.1551 17.0876 19.2237 15.3695 17.6529 14.3712C16.082 13.3728 14.0168 13.1563 11.4417 13.6771C9.76414 14.0204 8.14054 14.5884 6.61461 15.3658C5.12847 16.1035 3.73333 17.0122 2.4575 18.0734C2.22355 18.2874 1.93108 18.4266 1.61761 18.4734C1.45396 18.5034 1.28531 18.4909 1.12783 18.4369C0.970405 18.383 0.829412 18.2895 0.718494 18.1653C0.463034 17.8853 0.305517 17.5297 0.269711 17.1522C0.198825 16.7469 0.229318 16.3304 0.358505 15.9398C0.520743 15.5602 0.772664 15.2258 1.09256 14.9652C2.53263 13.7369 4.14788 12.7306 5.88484 11.9796C7.63518 11.178 9.46754 10.5694 11.3494 10.1646C13.8704 9.64099 16.1029 9.57856 18.047 10.0141C19.8885 10.3851 21.5514 11.3665 22.7669 12.7999C23.9694 14.2281 24.7189 16.1314 25.0269 18.4862C25.4368 21.3354 25.1558 24.2415 24.2077 26.9592C23.266 29.516 21.6236 31.7554 19.4686 33.4207C17.0729 35.2787 14.1577 36.3727 11.1875 36.8489C9.82048 37.0522 8.44098 37.1605 7.059 37.173Z" fill="#F55045"/>
</svg>
