<svg width="16" height="16" viewBox="0 0 16 16" fill="none" xmlns="http://www.w3.org/2000/svg">
<path fill-rule="evenodd" clip-rule="evenodd" d="M1 3C1 1.89543 1.89543 1 3 1H13C14.1046 1 15 1.89543 15 3V13C15 14.1046 14.1046 15 13 15H3C1.89543 15 1 14.1046 1 13V3ZM0 3C0 1.34315 1.34315 0 3 0H13C14.6569 0 16 1.34315 16 3V13C16 14.6569 14.6569 16 13 16H3C1.34315 16 0 14.6569 0 13V3ZM7.35355 10.6464L5.20711 8.5H12V7.5H5.20711L7.35355 5.35355L6.64645 4.64645L3.64645 7.64645C3.45118 7.84171 3.45118 8.15829 3.64645 8.35355L6.64645 11.3536L7.35355 10.6464Z" fill="#5D5D5D"/>
</svg>
