<svg width="18" height="20" viewBox="0 0 18 20" fill="none" xmlns="http://www.w3.org/2000/svg">
<path fill-rule="evenodd" clip-rule="evenodd" d="M12.947 3.9225L8.99985 0L5.05266 3.9225L6.23841 5.10083L8.16127 3.19V10.345H9.83843V3.19L11.7613 5.10083L12.947 3.9225Z" fill="#C1C7CB"/>
<path fill-rule="evenodd" clip-rule="evenodd" d="M1.77778 18.3333L2.89561 15H15.1045L16.2223 18.3333H1.77778ZM17.9162 18.1125L16.5468 14.0308V6.66667C16.5468 6.20667 16.1719 5.83333 15.7082 5.83333H13.1925V7.5H14.8696V13.3333H3.12953V7.5H4.80669V5.83333H2.29095C1.82806 5.83333 1.45237 6.20667 1.45237 6.66667V14.0308L0.0838138 18.1117C-0.0721618 18.5767 -0.00842979 19.0533 0.258238 19.4217C0.524068 19.7892 0.95929 20 1.45237 20H16.5468C17.0399 20 17.4751 19.7892 17.7418 19.4217C18.0084 19.0533 18.0722 18.5767 17.9162 18.1125Z" fill="#C1C7CB"/>
<path fill-rule="evenodd" clip-rule="evenodd" d="M10.677 17.5H7.32272V15.8333H10.677V17.5Z" fill="#C1C7CB"/>
</svg>
