<svg width="20" height="20" viewBox="0 0 20 20" fill="none" xmlns="http://www.w3.org/2000/svg">
<path fill-rule="evenodd" clip-rule="evenodd" d="M15.5439 1.66972C13.959 0.616837 12.0596 0 10.0039 0C9.0918 0 8.23242 0.161133 7.38672 0.388939C8.81934 2.05037 10.0898 3.83942 11.1553 5.75079C12.8408 4.70902 14.3291 3.34225 15.5439 1.66972ZM10.1904 8.74573C10.4717 9.33187 10.7217 9.90708 10.9609 10.5155C7.69043 11.6767 4.80078 13.8131 2.66211 16.7441C1.02051 14.9632 0 12.6101 0 9.99308C1.03223 10.1349 2.0752 10.2653 3.10645 10.2653C5.57129 10.2653 7.97363 9.72372 10.1904 8.74573ZM10.0049 20C7.89648 20 5.94141 19.3388 4.33398 18.2193C6.20312 15.5717 8.79004 13.6408 11.71 12.5991C12.4053 14.8243 12.8643 17.1358 13.0361 19.4777C12.0684 19.7834 11.0703 20 10.0049 20ZM5.22363 1.26966C6.74512 2.9504 8.06055 4.79519 9.16699 6.75938C6.41895 7.94279 3.33496 8.30122 0.28125 7.7373C0.93457 4.93683 2.77051 2.61438 5.22363 1.26966ZM13.8496 11.9906C14.5117 14.1187 14.9482 16.2995 15.165 18.5247C17.5098 17.1023 19.248 14.7687 19.8154 12.0016C17.8047 11.61 15.7822 11.5989 13.8496 11.9906ZM13.0918 9.87366C12.8076 9.14852 12.5049 8.43184 12.168 7.7261C14.1123 6.56483 15.8389 5.01189 17.252 3.12547C18.9014 4.87016 19.9443 7.20381 20 9.77638C17.6641 9.3653 15.3271 9.37633 13.0918 9.87366Z" fill="#5D5D5D"/>
</svg>
