<svg width="20" height="20" viewBox="0 0 20 20" fill="none" xmlns="http://www.w3.org/2000/svg">
<path fill-rule="evenodd" clip-rule="evenodd" d="M0 6.25C0 2.79822 2.79785 0 6.25 0H13.75C17.2021 0 20 2.79822 20 6.25V13.75C20 17.2018 17.2021 20 13.75 20H6.25C2.79785 20 0 17.2018 0 13.75V6.25ZM13.75 10C13.75 12.0711 12.0715 13.75 10 13.75C7.92847 13.75 6.25 12.0711 6.25 10C6.25 7.92893 7.92847 6.25 10 6.25C12.0715 6.25 13.75 7.92893 13.75 10ZM15 6.25C15.6909 6.25 16.25 5.69036 16.25 5C16.25 4.30964 15.6909 3.75 15 3.75C14.3091 3.75 13.75 4.30964 13.75 5C13.75 5.69036 14.3091 6.25 15 6.25Z" fill="#5D5D5D"/>
</svg>
