<svg width="18" height="18" viewBox="0 0 18 18" fill="none" xmlns="http://www.w3.org/2000/svg">
<path fill-rule="evenodd" clip-rule="evenodd" d="M7.30705 12.7873C5.84381 12.7873 4.46735 12.2174 3.43249 11.1825C2.39671 10.1477 1.82676 8.7712 1.82676 7.30705C1.82676 5.84381 2.39671 4.46735 3.43249 3.43249C4.46735 2.39671 5.84381 1.82676 7.30705 1.82676C8.77028 1.82676 10.1467 2.39671 11.1816 3.43249C12.2174 4.46735 12.7873 5.84381 12.7873 7.30705C12.7873 8.7712 12.2174 10.1477 11.1816 11.1825C10.1467 12.2174 8.77028 12.7873 7.30705 12.7873ZM18 16.7085L13.075 11.7826C14.0688 10.5075 14.6141 8.95022 14.6141 7.30705C14.6141 5.35515 13.8533 3.52017 12.4731 2.14097C11.0939 0.759933 9.25894 0 7.30705 0C5.35515 0 3.52017 0.759933 2.14097 2.14097C0.760846 3.52017 0 5.35515 0 7.30705C0 9.25894 0.760846 11.0939 2.14097 12.4731C3.52017 13.8542 5.35515 14.6141 7.30705 14.6141C8.95022 14.6141 10.5075 14.0697 11.7826 13.0741L16.7085 18L18 16.7085Z" fill="#C1C7CB"/>
</svg>
